…
    ## See spec(...) for full column specifications.

    ## Warning in rbind(names(probs), probs_f): number of columns of result is not
    ## a multiple of vector length (arg 1)

    ## Warning: 244 parsing failures.
    ## row # A tibble: 5 x 5 col     row col   expected               actual           file                 expected   <int> <chr> <chr>                  <chr>            <chr>                actual 1  5632 p1_37 an integer             .100000001490116 '2002/DS0006/21741-… file 2  6685 p1_39 an integer             .5               '2002/DS0006/21741-… row 3  6780 p1_62 no trailing characters .5               '2002/DS0006/21741-… col 4  7848 p1_12 an integer             .5               '2002/DS0006/21741-… expected 5  8077 p1_62 no trailing characters .5               '2002/DS0006/21741-…
    ## ... ................. ... .......................................................................... ........ .......................................................................... ...... .......................................................................... .... .......................................................................... ... .......................................................................... ... .......................................................................... ........ ..........................................................................
    ## See problems(...) for more details.

``` r
main_table_chips_2002
```

    ## # A tibble: 37,969 x 84
    ##      coun  vill  hous  p1_2  p1_3  p1_4  p1_5  p1_6  p1_7  p1_8  p1_9
    ##     <int> <int> <int> <int> <int> <int> <int> <int> <int> <int> <int>
    ##  1 110111     3     1     1     1     1    42     1     1     1     2
    ##  2 110111     3     1     2     2     2    41     1     1     1     2
    ##  3 110111     3     1     3     3     1    19     2     2     2     2
    ##  4 110111     3     1     4     3     1    12     2     6     2     2
    ##  5 110111     3     2     1     1     2    56     1     4     1     2
    ##  6 110111     3     2     2     2     1    58     1     2     2     2
    ##  7 110111     3     2     3     3     1    24     2     1     2     2
    ##  8 110111     3     3     1     1     2    51     1     4     2     2
    ##  9 110111     3     3     2     2     1    49     1     1     2     2
    ## 10 110111     3     3     3     3     1    22     2     6     2     2
    ## # ... with 37,959 more rows, and 73 more variables: p1_10 <int>, p1_11
    ## #   <int>, p1_12 <int>, p1_13 <int>, p1_14 <int>, p1_15 <int>, p1_16
    ## #   <int>, p1_17 <dbl>, p1_18 <int>, p1_19 <dbl>, p1_20 <int>, p1_21
    ## #   <int>, p1_22 <int>, p1_23 <dbl>, p1_24 <int>, p1_25 <int>, p1_26
    ## #   <int>, p1_27 <int>, p1_28 <int>, p1_29 <int>, p1_30 <int>, p1_31
    ## #   <int>, p1_32 <int>, p1_33 <int>, p1_34 <int>, p1_35 <dbl>, p1_36
    ## #   <int>, p1_37 <int>, p1_38 <int>, p1_39 <int>, p1_40 <dbl>, p1_41
    ## #   <int>, p1_42 <int>, p1_43 <int>, p1_44 <int>, p1_45 <int>, p1_46
    ## #   <int>, p1_47 <int>, p1_48 <int>, p1_49 <int>, p1_50 <int>, p1_51
…
    ## Parsed with column specification:
    ## cols(
    ##   code = col_integer(),
    ##   name = col_character(),
    ##   cityCode = col_integer(),
    ##   provinceCode = col_integer()
    ## )

``` r
counties_main
```

    ## # A tibble: 2,856 x 4
    ##      code name     cityCode provinceCode
    ##     <int> <chr>       <int>        <int>
    ##  1 110101 东城区       1101           11
    ##  2 110102 西城区       1101           11
    ##  3 110105 朝阳区       1101           11
    ##  4 110106 丰台区       1101           11
    ##  5 110107 石景山区     1101           11
    ##  6 110108 海淀区       1101           11
    ##  7 110109 门头沟区     1101           11
    ##  8 110111 房山区       1101           11
    ##  9 110112 通州区       1101           11
    ## 10 110113 顺义区       1101           11
    ## # ... with 2,846 more rows
…
    ## Parsed with column specification:
    ## cols(
    ##   code = col_integer(),
    ##   name = col_character()
    ## )

``` r
prov_county_main <- left_join(counties_main, province_main,
                              by=c('provinceCode'='code'))

prov_county_main
```

    ## # A tibble: 2,856 x 7
    ##      code name.x   cityCode provinceCode lat   long  name.y
    ##     <int> <chr>       <int>        <int> <chr> <chr> <chr> 
    ##  1 110101 东城区       1101           11 NA    NA    北京市
    ##  2 110102 西城区       1101           11 NA    NA    北京市
    ##  3 110105 朝阳区       1101           11 NA    NA    北京市
    ##  4 110106 丰台区       1101           11 NA    NA    北京市
    ##  5 110107 石景山区     1101           11 NA    NA    北京市
    ##  6 110108 海淀区       1101           11 NA    NA    北京市
    ##  7 110109 门头沟区     1101           11 NA    NA    北京市
    ##  8 110111 房山区       1101           11 NA    NA    北京市
    ##  9 110112 通州区       1101           11 NA    NA    北京市
    ## 10 110113 顺义区       1101           11 NA    NA    北京市
    ## # ... with 2,846 more rows
…
