DS421 semester 2 final project
…
chips_rur_1988_filt <- chips_rur_1988_filt %>%
  mutate(., PROVCOUNTY = paste0(PROVINCE, COUNTY)) 

chips_rur_1988_filt$UCODE <- substr(chips_rur_1988_filt$UCODE, 1,6)

#A1 is county and city code
chips_rur_1995 %>%
  mutate(., PROVCOUNTY = paste0(PROVINCE, COUNTY))

## # A tibble: 7,998 x 262
##        A1  B101  B401  B402  B403  B404  B405  B406  B407 B407A  B408
##     <int> <int> <int> <int> <int> <int> <int> <int> <int> <int> <int>
##  1 110221   101     1     1     2     2     2     2     2     0     1
##  2 110221   102     1     1     2     2     2     2     2     0     1
##  3 110221   103     1     1     2     2     2     2     2     0     1
##  4 110221   104     1     1     2     2     2     2     2     0     1
##  5 110221   105     1     1     2     2     2     2     2     0     1
##  6 110221   106     1     1     2     2     2     2     2     0     1
##  7 110221   107     1     1     2     2     2     2     2     0     1
##  8 110221   108     1     1     2     2     2     2     2     0     1
##  9 110221   109     1     1     2     2     2     2     2     0     1
## 10 110221   110     1     1     2     2     2     2     2     0     1
## # ... with 7,988 more rows, and 251 more variables: B409 <int>,
## #   B410 <int>, B411 <int>, B412 <int>, B412A <int>, B412B <int>,
## #   B412C <int>, B412D <int>, B413 <int>, B414 <int>, B501_1 <int>,
## #   B501_2 <int>, B501_3 <int>, B501A_1 <int>, B501A_2 <int>,
## #   B501A_3 <int>, B501B_1 <int>, B501B_2 <int>, B501B_3 <int>,
## #   B501C_1 <int>, B501C_2 <int>, B501C_3 <int>, B501D_1 <int>,
## #   B501D_2 <int>, B501D_3 <int>, B501E_1 <int>, B501E_2 <int>,
## #   B501E_3 <int>, B501F_1 <int>, B501F_2 <int>, B501F_3 <int>,
## #   B502_1 <int>, B502_2 <int>, B502_3 <int>, B502A_1 <int>,
…
chips_rur_2007hhiexp %>%
  group_by(name_id) 

## # A tibble: 8,000 x 14
## # Groups:   name_id [82]
##    name_id  exp1   exp2   exp3   exp4  exp5   exp6   exp7    exp8
##    <chr>   <dbl>  <dbl>  <dbl>  <dbl> <dbl>  <dbl>  <dbl>   <dbl>
##  1 130181  2670.    0.   2239. 1778.   971.  520.   386.    12.0 
##  2 130181  9633. 5364.   8978. 6396.   786. 1935.  1687.  1946.  
##  3 130181  4012.  442.   1941.  180.   120.  134.    13.0    3.00
##  4 130181  9487. 1986.   5853. 1020.   884. 4192.   386.   357.  
##  5 130181  3371. 1174.   2750.  712.   290.  270.    44.7   34.3 
##  6 130181  6559.   47.0 20386.  147.   432.  120.   102.    14.0 
##  7 130181  4449.  293.   1748.  201.  1254.  374.   118.    47.3 
##  8 130181  6968.  808.   1072.  147.   300.   69.2   72.0   65.4 
##  9 130181  3518.  742.   1344.  246.   567. 1162.   564.   137.  
## 10 130181  3805.  414.   9059.   48.0  959.  400.   473.   114.  
## # ... with 7,990 more rows, and 5 more variables: income_net <dbl>,
## #   income_net_1 <dbl>, income_net_2 <dbl>, income_net_3 <dbl>,
## #   income_net_4 <dbl>
…
Geocode county addresses based off the county codes

Data from https://raw.githubusercontent.com/modood/Administrative-divisions-of-China/, basically theres a county code and name for each county. They are not geocoded however (by geocoded I mean center of county).

#Add long lat columns to the county code table

counties_main <- read_csv('https://raw.githubusercontent.com/modood/Administrative-divisions-of-China/master/dist/areas.csv')

counties_main

## # A tibble: 2,856 x 4
##      code name     cityCode provinceCode
##     <int> <chr>       <int>        <int>
##  1 110101        1101           11
##  2 110102        1101           11
##  3 110105        1101           11
##  4 110106        1101           11
##  5 110107      1101           11
##  6 110108        1101           11
##  7 110109      1101           11
##  8 110111        1101           11
##  9 110112        1101           11
## 10 110113        1101           11
## # ... with 2,846 more rows
…
city_main <- read_csv('https://raw.githubusercontent.com/modood/Administrative-divisions-of-China/master/dist/cities.csv')
province_main <- read_csv('https://raw.githubusercontent.com/modood/Administrative-divisions-of-China/master/dist/provinces.csv')

prov_county_main <- left_join(counties_main, province_main,
                              by=c('provinceCode'='code'))

prov_county_main <- prov_county_main %>%
    rename('cityName' = name.y, 
           'countyName' = name.x) %>%
    mutate(., geocodeAdd = paste0(cityName,countyName))

prov_county_main

## # A tibble: 2,856 x 8
##      code countyName cityCode provinceCode lat   long  cityName geocodeAdd
##     <int> <chr>         <int>        <int> <chr> <chr> <chr>    <chr>     
##  1 110101          1101           11 NA    NA       
##  2 110102          1101           11 NA    NA       
##  3 110105          1101           11 NA    NA       
##  4 110106          1101           11 NA    NA       
##  5 110107        1101           11 NA    NA       
##  6 110108          1101           11 NA    NA       
##  7 110109        1101           11 NA    NA       
##  8 110111          1101           11 NA    NA       
##  9 110112          1101           11 NA    NA       
## 10 110113          1101           11 NA    NA       
## # ... with 2,846 more rows
…
a <- read_csv('data/pcoun_1_geocoded.csv')
b <- read_csv('data/pcoun_2_geocoded.csv')
geocoded_areas <- bind_rows(a,b)

prov_county_main$lat <- geocoded_areas$lat
prov_county_main$long <- geocoded_areas$long

prov_county_main$engAdd <- geocoded_areas$formatted_address

Join prov_county_main to the tables

chips_rur_1988_filt$UCODE <- strtoi(chips_rur_1988_filt$UCODE)
prov_county_main

## # A tibble: 2,856 x 9
##      code countyName cityCode provinceCode   lat  long cityName geocodeAdd
##     <int> <chr>         <int>        <int> <dbl> <dbl> <chr>    <chr>     
##  1 110101          1101           11  39.9  116.    
##  2 110102          1101           11  39.9  116.    
##  3 110105          1101           11  39.9  116.    
##  4 110106          1101           11  39.9  116.    
##  5 110107        1101           11  39.9  116.    
##  6 110108          1101           11  40.0  116.    
##  7 110109        1101           11  39.9  116.    
##  8 110111          1101           11  39.7  116.    
##  9 110112          1101           11  39.9  117.    
## 10 110113          1101           11  40.1  117.    
## # ... with 2,846 more rows, and 1 more variable: engAdd <chr>
…
#Geocode taobao villages

taobao_villages_2016 <- taobao_villages_2016 %>% 
  mutate(., geocodeAdd = paste0(sheng,cun))
taobao_villages_2016 %>% count(xiangzhen)

## # A tibble: 493 x 2
##    xiangzhen      n
##    <chr>      <int>
##  1        1
##  2          2
##  3          2
##  4          1
##  5          2
##  6          1
##  7          3
##  8          4
##  9        1
## 10      1
## # ... with 483 more rows
…
